Project - Report
…
Method

For each of the five countries examined I scraped the Wikipedia pages of 20-30 of its most prominent authors. I then scored the pages using the AFINN lexicon for its positive vs negative sentiment. I reasoned authors with more negative biographies, probably led unhappier lives. Conversely, those with more positive biographies led happier lives. I assigned each author a Mean Bio Score

I then used the R-Gutenberg package to score the major literary works of these authors using both the AFINN and NRC lexicons and assigned each author a Mean Book Score for the overall positivity/negativity of their body of work.

Finally, I joined the Mean Bio Scores, Mean Book Scores and NRC Scores on author into one large table. The table required some light regex cleaning to deal with the accents in some of the authors name.

The NRC lexicon was used to find the proportion of words used by each author corresponding to emotions like joy and fear.

The AFINN lexicon was used since it applies a score to words ranging from -5 to 5. I found this lexicon more nuanced than the BING lexicon which simply categorizes words into 1 or -1 scores. For example, with BING, the phrase tortured and exiled would receive the same negative score as unhappy and sad childhood which I didnt think was adequate.

Below is a snapshot of the final table produced.

## # A tibble: 123 x 12
##    author                country Mean_Bio_Score Mean_Book_Score anger.prop
##    <chr>                 <chr>            <dbl>           <dbl>      <dbl>
##  1 Fyodor Dostoevsky     Russia         -0.526         -0.353       0.122 
##  2 Leo Tolstoy           Russia         -0.301          0.0490      0.112 
##  3 Nikolai Gogol         Russia         -0.181         -0.00716     0.0980
##  4 Ivan Turgenev         Russia         -0.319         -0.0333      0.103 
##  5 Anton Chekhov         Russia         -0.153         -0.246       0.111 
##  6 Maxim Gorky           Russia         -0.285         -0.348       0.119 
##  7 Yevgeny Zamyatin      Russia         -0.0238        NA          NA     
##  8 Alexander Pushkin     Russia          0.282         -0.215       0.109 
##  9 Aleksandr Solzhenits~ Russia         -0.823         NA          NA     
## 10 Vladimir Nabokov      Russia          0.0417        NA          NA     
## # ... with 113 more rows, and 7 more variables: anticipation.prop <dbl>,
## #   disgust.prop <dbl>, fear.prop <dbl>, joy.prop <dbl>,
## #   sadness.prop <dbl>, surprise.prop <dbl>, trust.prop <dbl>
…
